TF_期中期末
…
group_by(bind_r2f2m2,bind_r2f2m2$cust) %>% arrange(desc(price))

## # A tibble: 417,827 x 11
## # Groups:   bind_r2f2m2$cust [6,969]
##    date       cust     age   area        cat prod         qty  cost price    tid
##    <date>     <chr>    <chr> <chr>     <dbl> <chr>      <dbl> <dbl> <dbl>  <int>
##  1 2000-12-12 01618907 a54   z114     470103 471033319~     2  3570  4000  43865
##  2 2000-11-26 00119979 a69   z110     715002 471986406~     1  3714  3990  26039
##  3 2000-11-25 00768146 a59   z115     715002 471986406~     1  3714  3990  24614
##  4 2000-11-26 01714883 a39   z115     715002 471986406~     1  3714  3990  27052
##  5 2001-01-22 01549720 a39   z221     100516 471015409~    10  3700  3990  80176
##  6 2001-02-04 01845747 a99   zUnknown 730708 20509231       2  3040  3990  92315
##  7 2001-02-02 01654264 a34   z221     730608 471685900~     2  3600  3980  89531
##  8 2001-02-15 01852035 a34   zOthers  714601 471986406~     2  3714  3980 103706
##  9 2000-12-11 00326438 a49   z115     320403 20566609       3  3186  3976  42596
## 10 2001-02-12 01816303 a34   zOthers  730608 471848010~     4  3320  3960 100577
## # ... with 417,817 more rows, and 1 more variable: `bind_r2f2m2$cust` <chr>
…
group_by(bind_r2f2m1,bind_r2f2m1$cust) %>% arrange(desc(price))

## # A tibble: 6,495 x 11
## # Groups:   bind_r2f2m1$cust [542]
##    date       cust     age   area       cat prod          qty  cost price    tid
##    <date>     <chr>    <chr> <chr>    <dbl> <chr>       <dbl> <dbl> <dbl>  <int>
##  1 2000-11-25 00902755 a44   z115    710301 4714692002~     1   820   849  24679
##  2 2001-02-27 00225588 a34   z221    560201 4710036008~     4   756   756 117305
##  3 2000-12-10 00885621 a29   z115    560201 4711553171~     4   748   752  41327
##  4 2001-01-24 00442459 a49   z115    110333 4712603661~     2   626   696  82718
##  5 2001-02-15 00086882 a34   z115    100401 9415007601~     2   766   684 102926
##  6 2000-12-16 00937474 a59   z115    560201 7610053910~     2   646   678  47841
##  7 2000-11-26 02124681 a39   zOthers 470101 4710333198~     1   536   675  27651
##  8 2001-02-08 01555110 a34   z115    560402 8712045012~     1   538   569  95950
##  9 2000-11-10 01721751 a64   z114    110506 4710063131~     4   516   552   9632
## 10 2000-12-01 02065205 a49   z115    530408 4710094004~     4   552   552  32503
## # ... with 6,485 more rows, and 1 more variable: `bind_r2f2m1$cust` <chr>
…
group_by(bind_r2f1m2,bind_r2f1m2$cust) %>% arrange(desc(price))

## # A tibble: 68,271 x 11
## # Groups:   bind_r2f1m2$cust [2,900]
##    date       cust     age   area        cat prod         qty  cost price    tid
##    <date>     <chr>    <chr> <chr>     <dbl> <chr>      <dbl> <dbl> <dbl>  <int>
##  1 2000-11-26 01492729 a39   z115     730804 20540784       2  3600  3980  26735
##  2 2001-02-11 01730449 a99   zUnknown 730608 471685900~     2  3600  3980  99451
##  3 2001-02-11 01197617 a39   z221     714601 471986406~     2  3714  3980  99001
##  4 2000-12-02 02162461 a34   z110     715609 471986406~     1  3714  3939  33893
##  5 2000-12-02 02140544 a34   z221     560402 871204500~     6  3798  3918  33849
##  6 2001-01-01 01987010 a39   z110     730704 471848016~     1  2750  3690  59734
##  7 2001-02-03 01705133 a34   z115     730801 471685900~     1  2600  3690  90664
##  8 2001-02-24 01616828 a34   z221     715401 471853821~     1  2666  3680 114030
##  9 2000-12-03 01741407 a44   z114     470103 490997811~     2  2856  3600  34780
## 10 2001-01-16 02076683 a39   zOthers  470103 490997811~     2  2856  3600  71422
## # ... with 68,261 more rows, and 1 more variable: `bind_r2f1m2$cust` <chr>
…
group_by(bind_r2f1m1,bind_r2f1m1$cust) %>% arrange(desc(price))

## # A tibble: 18,182 x 11
## # Groups:   bind_r2f1m1$cust [2,896]
##    date       cust     age   area     cat prod            qty  cost price    tid
##    <date>     <chr>    <chr> <chr>  <dbl> <chr>         <dbl> <dbl> <dbl>  <int>
##  1 2001-01-30 01793604 a34   z221  470106 0729238294103     3  2784  3510  87223
##  2 2001-01-30 01793604 a34   z221  470105 4909978199111     3  2571  3240  87223
##  3 2001-01-30 01793604 a34   z221  470105 4909978199050     1  2321  2925  87223
##  4 2001-01-30 01793604 a34   z221  470110 4909978190989     1  1857  2340  87223
##  5 2001-01-30 01793604 a34   z221  470105 4909978199104     2  1714  2160  87223
##  6 2001-01-30 01793604 a34   z221  470105 4909978195106     1  1071  1350  87223
##  7 2001-01-30 01793604 a34   z221  470101 4901872179022     1  1035  1305  87223
##  8 2001-02-15 01455090 a64   z221  100215 4710126310322     5  1000  1195 103345
##  9 2001-02-23 02063294 a64   z110  100516 4710515700024     4   924  1180 113192
## 10 2001-02-28 00170536 a54   z106  560402 4710628121815     2  1064  1158 118201
## # ... with 18,172 more rows, and 1 more variable: `bind_r2f1m1$cust` <chr>
…
